[
  {
    "type": "attack",
    "availableSlots": ["Left hand", "Right hand"],
    "name": "Wooden long sword",
    "data": [["|"], ["┼"]],
    "color": [["brown"], ["brown"]],
    "width": 1,
    "height": 2,
    "offset": {
      "x": 1,
      "y": 0
    },
    "damage": 2
  },
  {
    "type": "attack",
    "availableSlots": ["Left hand", "Right hand"],
    "name": "Ymir's battleaxe",
    "data": [
      ["<", "¯", "]"],
      ["", "║", ""],
      ["", "'", ""]
    ],
    "color": [
      ["cyan", "cyan", "cyan"],
      ["", "cyan", "cyan"],
      ["", "cyan", ""]
    ],
    "width": 3,
    "height": 3,
    "offset": {
      "x": -2,
      "y": 0
    },
    "damage": 5
  },
  {
    "type": "potion",
    "name": "Health potion",
    "color": [["pink"]],
    "data": [["♥"]],
    "width": 1,
    "height": 1,
    "health": 5
  },
  {
    "type": "coin",
    "name": "Gold coin",
    "color": [["yellow"]],
    "data": [["$"]],
    "width": 1,
    "height": 1
  },
  {
    "type": "defence",
    "availableSlots": ["Chest plate"],
    "name": "Light Armor",
    "color": [["blue"]],
    "data": [["#"]],
    "width": 1,
    "height": 1,
    "armor": 3
  },
  {
    "type": "defence",
    "availableSlots": ["Helm"],
    "name": "Headphones",
    "color": [["green"]],
    "data": [["∩"]],
    "width": 1,
    "height": 1,
    "armor": 1
  },
  {
    "type": "defence",
    "availableSlots": ["Left pad"],
    "name": "Left Ear",
    "color": [["green"]],
    "data": [["<"]],
    "width": 1,
    "height": 1,
    "armor": 1
  },
  {
    "type": "defence",
    "availableSlots": ["Right pad"],
    "name": "Right Ear",
    "color": [["green"]],
    "data": [[">"]],
    "width": 1,
    "height": 1,
    "armor": 1
  },
  {
    "type": "defence",
    "availableSlots": ["Helm"],
    "name": "Knight helmet",
    "color": [
      ["", "white", "white", "white", ""],
      ["", "white", "white", "white", ""],
      ["white", "white", "white", "white", "white"],
      ["white", "white", "white", "white", "white"],
      ["white", "white", "white", "white", "white"],
      ["", "white", "white", "white", ""]
    ],
    "data": [
      ["", "„", "_", "„", ""],
      ["", "_", "‼", "_", ""],
      ["/", ".", "-", ".", "\\"],
      ["|", "═", "╦", "═", "|"],
      ["\\", "`", "║", "´", "/"],
      ["", "`", "¯", "´", ""]
    ],
    "width": 5,
    "height": 6,
    "armor": 3
  }
]
